^C:\USERS\COSTCO\DOCUMENTS\BACKUP2\QUIZ\QUIZ 3\QUIZ\BACKUP\DEBUG\CHARACTER.OBJ|C:\USERS\COSTCO\DOCUMENTS\BACKUP2\QUIZ\QUIZ 3\QUIZ\BACKUP\DEBUG\CHARCLASSES.OBJ|C:\USERS\COSTCO\DOCUMENTS\BACKUP2\QUIZ\QUIZ 3\QUIZ\BACKUP\DEBUG\CHARSTATS.OBJ|C:\USERS\COSTCO\DOCUMENTS\BACKUP2\QUIZ\QUIZ 3\QUIZ\BACKUP\DEBUG\SOURCE.OBJ
C:\USERS\COSTCO\DOCUMENTS\BACKUP2\QUIZ\QUIZ 3\QUIZ\DEBUG\BACKUP.ILK
C:\USERS\COSTCO\DOCUMENTS\BACKUP2\QUIZ\QUIZ 3\QUIZ\DEBUG\BACKUP.EXE
C:\USERS\COSTCO\DOCUMENTS\BACKUP2\QUIZ\QUIZ 3\QUIZ\DEBUG\BACKUP.PDB
